%YAML 1.1
%TAG !u! tag:unity3d.com,2011:
--- !u!687078895 &4343727234628468602
SpriteAtlas:
  m_ObjectHideFlags: 0
  m_PrefabParentObject: {fileID: 0}
  m_PrefabInternal: {fileID: 0}
  m_Name: MagicEffect
  m_EditorData:
    textureSettings:
      serializedVersion: 2
      anisoLevel: 1
      compressionQuality: 50
      maxTextureSize: 4096
      textureCompression: 1
      filterMode: 1
      generateMipMaps: 0
      readable: 0
      crunchedCompression: 0
      sRGB: 0
    platformSettings:
    - m_BuildTarget: Android
      m_MaxTextureSize: 4096
      m_ResizeAlgorithm: 0
      m_TextureFormat: 34
      m_TextureCompression: 1
      m_CompressionQuality: 50
      m_CrunchedCompression: 0
      m_AllowsAlphaSplitting: 0
      m_Overridden: 0
    - m_BuildTarget: Standalone
      m_MaxTextureSize: 2048
      m_ResizeAlgorithm: 0
      m_TextureFormat: 12
      m_TextureCompression: 1
      m_CompressionQuality: 50
      m_CrunchedCompression: 0
      m_AllowsAlphaSplitting: 0
      m_Overridden: 0
    packingParameters:
      serializedVersion: 2
      padding: 4
      blockOffset: 1
      allowAlphaSplitting: 0
      enableRotation: 1
      enableTightPacking: 1
    packedHash:
      serializedVersion: 2
      Hash: 27a99bd78e22305f7e3eb0eb1f2e029c
    variantMultiplier: 1
    bindAsDefault: 1
    finalFormat: 47
    hashString: 27a99bd78e22305f7e3eb0eb1f2e029c
    totalSpriteSurfaceArea: 11544848
    packables:
    - {fileID: 102900000, guid: c80a4610d1cdc6a408a9bad7598c757a, type: 3}
    packedSpriteRenderDataKeys:
    - 01fc8052244f34b4f869ce5a678693d0: 21300000
    - 8743789600c91db47813cd49e7ce04c1: 21300000
    - 213699a4494e50e419c846508145aea2: 21300000
    - 453b6f1a21d22f14b8a850e2e0a32268: 21300000
    - f46fc35c99b8cbb4a883ba79d0f541c6: 21300000
    - c537d4f7d3679bb43b5ac6c3f345691e: 21300000
    - ee1644fc2237f1d44984f4bc90a6000c: 21300000
    - 716e166c486a577438c947cfe32c620f: 21300000
    - 9637ec8e9aaadf74bb31cb6ee36ae655: 21300000
    - 2c1360a2403658e4091b38e5f2333e0a: 21300000
    - 2cd04619b33eb3948a63866ffa703508: 21300000
    - 09322568ffcc6fa43aa25c36677115ea: 21300000
    - a9e109e515c1d0147ac5b99d9159af16: 21300000
    - b8aafd38553155347bdff4bfb5279525: 21300000
    - f539c633bc511fc46b4afe60a5c31771: 21300000
    - 9a2f11e05ae46e340854e7a9f469a97c: 21300000
    - 5976eadf17ce9584eafcc8226f23d836: 21300000
    - f203b4f1bf784b94e98aa96e2646d283: 21300000
    - 531ad2edd35f2bd479344732b8773f12: 21300000
    - 85bd45e078825334b822192a9f398986: 21300000
    - 231c998b1e8a5c14e8868572518e0b73: 21300000
    - c8ffaa728ec5b994db579a969a9c1522: 21300000
    - a31cf0e93e27a3048952512b414e7e30: 21300000
    - c57a0a90f9905894db8eb31a5c7e1012: 21300000
    - e8bb613be36910c46a22dc22bf9dd0cb: 21300000
    - 7fa7bac46229e7a4cb5a1aa2a361a33b: 21300000
    - 9b3bd34266d70f74eae151c03b210a1f: 21300000
    - ac5a8c867e93ef24a917dd87f1245936: 21300000
    - a66f3cc3571811b4b825eae99416db96: 21300000
    - 66a0b359e1bfa8c4885086f9a26762e1: 21300000
    - 72d5dd9831104a948b2c6f76fb740e1c: 21300000
    - b9fa1a870df414449b81e4a64ad832b9: 21300000
    - 1802393d0f8daa74dac74cfa83fbbcf1: 21300000
    - 1ff9348c3b64d2a44bae20786018708c: 21300000
    - a9d1bc4f2892d12418b262d0d062062e: 21300000
    - 7b0f6f19dcde2384785516ec07feba6b: 21300000
    - bc3b8040634c56d438c708c557de3bfa: 21300000
    - ad23ffe96245c00418ee7c101fce8ece: 21300000
    - ea6bdef5eb9b69a4bbcd43c43fc9d8c6: 21300000
    - 3926e733836be894892adbf5ad450647: 21300000
    - 0423e894d1b1ed74ea8a29db6219380a: 21300000
    - 33f11272373e65a4084de710eacdd912: 21300000
    - 94ce71201d1c13a47b6d8d75ee1c04f4: 21300000
    - 4db5e8e830c34c34fa5dea96e99feca4: 21300000
    - 3f9726be8ee3dfa4e9a1cdc0bdeed065: 21300000
    - 5efbd0b4511b3f544b6cf0a02f81f71a: 21300000
    - d2a58e7892188e648b2c2132f4f12dfd: 21300000
    - f71e047933885fe4da66cc7a3b12c8d8: 21300000
    - e1482d6f0fd1db64f9ce0423b3e487df: 21300000
    - d6b6d33b5a3a8ad4b88adbf60c50318e: 21300000
    - ae374c2e41535064785ecb6304cc8287: 21300000
    - 4956d9876f968284a987169a3ec22353: 21300000
    - 2bec64afdf252614d964b0c053d7b9d2: 21300000
    - b53889d5dbc9511439f6270d6514408d: 21300000
    - 4c0b749b1b0d8684eabd5b251f0f6a36: 21300000
    - 42e708f33c07628409527ae141f3085d: 21300000
    - b8dd2757cf4d775428d092c21b78ebad: 21300000
    - c4712df6750102a4d87439d57103461b: 21300000
    - ce8a01dcafad3fc41abdc1fe445651e9: 21300000
    - a31c06cac16e2604f81388af054928bb: 21300000
    - 1026a0fa21d526c47a1e3aa492ff4f57: 21300000
    - ac9fe2c314a706445be73d10dac36ba6: 21300000
    - 7a92baed2aec7fa498bf4842fe265aee: 21300000
    - f58d4f4c72b6c5f46bbb235d7b89c4c1: 21300000
    - 0c46d16b415080249b9127f4e045983f: 21300000
    - dacdd7718b33f974eb4c14fea623eaf0: 21300000
    - 24d803a9f5a445b4eb76c149278bd257: 21300000
    - 9cb9e9033a158044d8730038f9b12f83: 21300000
    - 2d174c9633403ae4796655629e457d17: 21300000
    - 848bc279027448d4e9d9591e5cf53a44: 21300000
    - 43d10188fde616e42979ebdee414ebc3: 21300000
    - 9c5b54597a91bb4468a1075e05458c35: 21300000
    - 2ffdba0d82f959841a444709fb8c2d6b: 21300000
    - ca2f33a721a6e2f4c8539f8c9524fa23: 21300000
    - fbaa788a998f16643956a27d57184622: 21300000
    - a19c8409e12907840940e2741b1bd5c0: 21300000
    - 07887eac9878e7647b6003f642a23fe3: 21300000
    - bcf22a6a12a9c5746aa171b31bf4faf2: 21300000
    - f40d847395e7972498db5f2b48df4c98: 21300000
    - 32374ada69f993f409e42eef68a051f6: 21300000
    - 3cbd23d009c6f7c4dafc2fcb41a4b6b3: 21300000
    - 31a0a090b5bef3740bb42dcf77ce4d8d: 21300000
    - ea2f4c2d41113b9498a0431b9fd0e17e: 21300000
    - 41c97fedfe72b094d8413d2dd02203b1: 21300000
    - 14a876403ada7e143825bf82fae2e787: 21300000
    - 7e41da4f5aa4d954eb5ac4ddb5544f4a: 21300000
    - 60d2327957e887542995ab0754b3ba28: 21300000
    - f81f761616b6bc14b98b9f0060a7f145: 21300000
    - 840821be7fcc9624299ec9bcbc870b4b: 21300000
    - 4c7bc0eca965a674e97a946bcbb58b5b: 21300000
    - 5c8dd8748e58dd045af82c6d2f5408ea: 21300000
    - 13118cc3d9ef9b34c902cf45f4304b4e: 21300000
  m_MasterAtlas: {fileID: 0}
  m_PackedSprites:
  - {fileID: 21300000, guid: 01fc8052244f34b4f869ce5a678693d0, type: 3}
  - {fileID: 21300000, guid: 8743789600c91db47813cd49e7ce04c1, type: 3}
  - {fileID: 21300000, guid: 213699a4494e50e419c846508145aea2, type: 3}
  - {fileID: 21300000, guid: 453b6f1a21d22f14b8a850e2e0a32268, type: 3}
  - {fileID: 21300000, guid: f46fc35c99b8cbb4a883ba79d0f541c6, type: 3}
  - {fileID: 21300000, guid: c537d4f7d3679bb43b5ac6c3f345691e, type: 3}
  - {fileID: 21300000, guid: ee1644fc2237f1d44984f4bc90a6000c, type: 3}
  - {fileID: 21300000, guid: 716e166c486a577438c947cfe32c620f, type: 3}
  - {fileID: 21300000, guid: 9637ec8e9aaadf74bb31cb6ee36ae655, type: 3}
  - {fileID: 21300000, guid: 2c1360a2403658e4091b38e5f2333e0a, type: 3}
  - {fileID: 21300000, guid: 2cd04619b33eb3948a63866ffa703508, type: 3}
  - {fileID: 21300000, guid: 09322568ffcc6fa43aa25c36677115ea, type: 3}
  - {fileID: 21300000, guid: a9e109e515c1d0147ac5b99d9159af16, type: 3}
  - {fileID: 21300000, guid: b8aafd38553155347bdff4bfb5279525, type: 3}
  - {fileID: 21300000, guid: f539c633bc511fc46b4afe60a5c31771, type: 3}
  - {fileID: 21300000, guid: 9a2f11e05ae46e340854e7a9f469a97c, type: 3}
  - {fileID: 21300000, guid: 5976eadf17ce9584eafcc8226f23d836, type: 3}
  - {fileID: 21300000, guid: f203b4f1bf784b94e98aa96e2646d283, type: 3}
  - {fileID: 21300000, guid: 531ad2edd35f2bd479344732b8773f12, type: 3}
  - {fileID: 21300000, guid: 85bd45e078825334b822192a9f398986, type: 3}
  - {fileID: 21300000, guid: 231c998b1e8a5c14e8868572518e0b73, type: 3}
  - {fileID: 21300000, guid: c8ffaa728ec5b994db579a969a9c1522, type: 3}
  - {fileID: 21300000, guid: a31cf0e93e27a3048952512b414e7e30, type: 3}
  - {fileID: 21300000, guid: c57a0a90f9905894db8eb31a5c7e1012, type: 3}
  - {fileID: 21300000, guid: e8bb613be36910c46a22dc22bf9dd0cb, type: 3}
  - {fileID: 21300000, guid: 7fa7bac46229e7a4cb5a1aa2a361a33b, type: 3}
  - {fileID: 21300000, guid: 9b3bd34266d70f74eae151c03b210a1f, type: 3}
  - {fileID: 21300000, guid: ac5a8c867e93ef24a917dd87f1245936, type: 3}
  - {fileID: 21300000, guid: a66f3cc3571811b4b825eae99416db96, type: 3}
  - {fileID: 21300000, guid: 66a0b359e1bfa8c4885086f9a26762e1, type: 3}
  - {fileID: 21300000, guid: 72d5dd9831104a948b2c6f76fb740e1c, type: 3}
  - {fileID: 21300000, guid: b9fa1a870df414449b81e4a64ad832b9, type: 3}
  - {fileID: 21300000, guid: 1802393d0f8daa74dac74cfa83fbbcf1, type: 3}
  - {fileID: 21300000, guid: 1ff9348c3b64d2a44bae20786018708c, type: 3}
  - {fileID: 21300000, guid: a9d1bc4f2892d12418b262d0d062062e, type: 3}
  - {fileID: 21300000, guid: 7b0f6f19dcde2384785516ec07feba6b, type: 3}
  - {fileID: 21300000, guid: bc3b8040634c56d438c708c557de3bfa, type: 3}
  - {fileID: 21300000, guid: ad23ffe96245c00418ee7c101fce8ece, type: 3}
  - {fileID: 21300000, guid: ea6bdef5eb9b69a4bbcd43c43fc9d8c6, type: 3}
  - {fileID: 21300000, guid: 3926e733836be894892adbf5ad450647, type: 3}
  - {fileID: 21300000, guid: 0423e894d1b1ed74ea8a29db6219380a, type: 3}
  - {fileID: 21300000, guid: 33f11272373e65a4084de710eacdd912, type: 3}
  - {fileID: 21300000, guid: 94ce71201d1c13a47b6d8d75ee1c04f4, type: 3}
  - {fileID: 21300000, guid: 4db5e8e830c34c34fa5dea96e99feca4, type: 3}
  - {fileID: 21300000, guid: 3f9726be8ee3dfa4e9a1cdc0bdeed065, type: 3}
  - {fileID: 21300000, guid: 5efbd0b4511b3f544b6cf0a02f81f71a, type: 3}
  - {fileID: 21300000, guid: d2a58e7892188e648b2c2132f4f12dfd, type: 3}
  - {fileID: 21300000, guid: f71e047933885fe4da66cc7a3b12c8d8, type: 3}
  - {fileID: 21300000, guid: e1482d6f0fd1db64f9ce0423b3e487df, type: 3}
  - {fileID: 21300000, guid: d6b6d33b5a3a8ad4b88adbf60c50318e, type: 3}
  - {fileID: 21300000, guid: ae374c2e41535064785ecb6304cc8287, type: 3}
  - {fileID: 21300000, guid: 4956d9876f968284a987169a3ec22353, type: 3}
  - {fileID: 21300000, guid: 2bec64afdf252614d964b0c053d7b9d2, type: 3}
  - {fileID: 21300000, guid: b53889d5dbc9511439f6270d6514408d, type: 3}
  - {fileID: 21300000, guid: 4c0b749b1b0d8684eabd5b251f0f6a36, type: 3}
  - {fileID: 21300000, guid: 42e708f33c07628409527ae141f3085d, type: 3}
  - {fileID: 21300000, guid: b8dd2757cf4d775428d092c21b78ebad, type: 3}
  - {fileID: 21300000, guid: c4712df6750102a4d87439d57103461b, type: 3}
  - {fileID: 21300000, guid: ce8a01dcafad3fc41abdc1fe445651e9, type: 3}
  - {fileID: 21300000, guid: a31c06cac16e2604f81388af054928bb, type: 3}
  - {fileID: 21300000, guid: 1026a0fa21d526c47a1e3aa492ff4f57, type: 3}
  - {fileID: 21300000, guid: ac9fe2c314a706445be73d10dac36ba6, type: 3}
  - {fileID: 21300000, guid: 7a92baed2aec7fa498bf4842fe265aee, type: 3}
  - {fileID: 21300000, guid: f58d4f4c72b6c5f46bbb235d7b89c4c1, type: 3}
  - {fileID: 21300000, guid: 0c46d16b415080249b9127f4e045983f, type: 3}
  - {fileID: 21300000, guid: dacdd7718b33f974eb4c14fea623eaf0, type: 3}
  - {fileID: 21300000, guid: 24d803a9f5a445b4eb76c149278bd257, type: 3}
  - {fileID: 21300000, guid: 9cb9e9033a158044d8730038f9b12f83, type: 3}
  - {fileID: 21300000, guid: 2d174c9633403ae4796655629e457d17, type: 3}
  - {fileID: 21300000, guid: 848bc279027448d4e9d9591e5cf53a44, type: 3}
  - {fileID: 21300000, guid: 43d10188fde616e42979ebdee414ebc3, type: 3}
  - {fileID: 21300000, guid: 9c5b54597a91bb4468a1075e05458c35, type: 3}
  - {fileID: 21300000, guid: 2ffdba0d82f959841a444709fb8c2d6b, type: 3}
  - {fileID: 21300000, guid: ca2f33a721a6e2f4c8539f8c9524fa23, type: 3}
  - {fileID: 21300000, guid: fbaa788a998f16643956a27d57184622, type: 3}
  - {fileID: 21300000, guid: a19c8409e12907840940e2741b1bd5c0, type: 3}
  - {fileID: 21300000, guid: 07887eac9878e7647b6003f642a23fe3, type: 3}
  - {fileID: 21300000, guid: bcf22a6a12a9c5746aa171b31bf4faf2, type: 3}
  - {fileID: 21300000, guid: f40d847395e7972498db5f2b48df4c98, type: 3}
  - {fileID: 21300000, guid: 32374ada69f993f409e42eef68a051f6, type: 3}
  - {fileID: 21300000, guid: 3cbd23d009c6f7c4dafc2fcb41a4b6b3, type: 3}
  - {fileID: 21300000, guid: 31a0a090b5bef3740bb42dcf77ce4d8d, type: 3}
  - {fileID: 21300000, guid: ea2f4c2d41113b9498a0431b9fd0e17e, type: 3}
  - {fileID: 21300000, guid: 41c97fedfe72b094d8413d2dd02203b1, type: 3}
  - {fileID: 21300000, guid: 14a876403ada7e143825bf82fae2e787, type: 3}
  - {fileID: 21300000, guid: 7e41da4f5aa4d954eb5ac4ddb5544f4a, type: 3}
  - {fileID: 21300000, guid: 60d2327957e887542995ab0754b3ba28, type: 3}
  - {fileID: 21300000, guid: f81f761616b6bc14b98b9f0060a7f145, type: 3}
  - {fileID: 21300000, guid: 840821be7fcc9624299ec9bcbc870b4b, type: 3}
  - {fileID: 21300000, guid: 4c7bc0eca965a674e97a946bcbb58b5b, type: 3}
  - {fileID: 21300000, guid: 5c8dd8748e58dd045af82c6d2f5408ea, type: 3}
  - {fileID: 21300000, guid: 13118cc3d9ef9b34c902cf45f4304b4e, type: 3}
  m_PackedSpriteNamesToIndex:
  - Leaf_Back_4
  - Leaf_Back_2
  - Leaf_Back_3
  - Leaf_Back_1
  - Leaf_8
  - Leaf_9
  - Leaf_6
  - Leaf_7
  - Leaf_4
  - Leaf_5
  - Leaf_2
  - Leaf_3
  - Leaf_1
  - Leaf_10
  - Aqua_8
  - Aqua_6
  - Aqua_7
  - Aqua_4
  - Aqua_5
  - Aqua_2
  - Aqua_3
  - Aqua_1
  - Meteor_2
  - Meteor_3
  - Meteor_1
  - w5_2
  - w5_3
  - w5_1
  - f5_1
  - f5_3
  - f5_2
  - s4_3
  - s4_2
  - s4_1
  - MeteorGround_3
  - MeteorGround_2
  - MeteorGround_1
  - f4_1
  - f4_2
  - f4_3
  - s5_2
  - s5_3
  - s5_1
  - w4_3
  - w4_2
  - w4_1
  - f3_3
  - f3_2
  - f3_1
  - f2_2
  - f2_3
  - f2_1
  - s3_1
  - s3_2
  - s3_3
  - f1_1
  - f1_3
  - f1_2
  - w3_1
  - w3_2
  - w3_3
  - sc3
  - sc2
  - fc2
  - sc1
  - fc3
  - fc1
  - wc3
  - wc2
  - wc1
  - cri3
  - cri2
  - cri1
  - cri6
  - cri5
  - cri4
  - s2_1
  - s2_3
  - s2_2
  - s1_2
  - s1_3
  - s1_1
  - atk1
  - atk3
  - atk2
  - atk4
  - w2_1
  - w2_3
  - w2_2
  - w1_2
  - w1_3
  - w1_1
  m_Tag: MagicEffect
  m_IsVariant: 0
