13|2|2|1|1 Nutrients|영양제 1개|empty|15|empty|
14|2|2|10|10 Nutrients|영양제 10개\n(10% 추가 지급)|empty|16|empty|
15|2|2|30|30 Nutrients|영양제 30개\n(20% 추가 지급)|empty|17|empty|
16|2|2|50|50 Nutrients|영양제 50개 \n(30% 추가 지급)|empty|18|empty|
17|2|2|2|1 Gloves|보호장갑 1개|empty|19|empty|
18|2|2|20|10 Gloves|보호장갑 10개\n(10% 추가 지급)|empty|20|empty|
19|2|2|60|30 Gloves|보호장갑 30개\n(20% 추가 지급)|empty|21|empty|
20|2|2|100|50 Gloves|보호장갑 50개\n(30% 추가 지급)|empty|22|empty|
