0|1|데이지|태양의눈' 이라는 별명을 가진 꽃. 꽃말은 희망, 평화.|99|100|daisy|
0|2|라벤더|향이 좋고 약효가 좋아서 다방면에 활용되는 꽃. 의외로 고양이에게는 위험하다고 한다! 꽃말은 침묵.|99|101|lavender|
0|3|라일락|향기가 좋고 아름다워서 관상수로 인기가 많은 꽃. 꽃말은 추억, 우정, 사랑의 시작.|99|102|lilac|
0|4|카네이션|어머니의 날의 대표적인 꽃. 꽃말은 건강을 비는 사람.|99|103|carnation|
0|5|시클라멘|겨울에 자라는 겨울 꽃. 여성들에게 인기가 많다. 꽃말은 수줍음, 시기, 질투.|99|104|cyclamen|
0|6|물망초|이름과 꽃말이 일치하는 관상용 꽃. 꽃말은 나를 잊지 말아주세요.|99|105|forget_me_not|
0|7|수선화|물가에서 주로 자라며, 나르키소스의 전설로도 유명한 꽃. 꽃말은 자기애, 자만.|99|106|daffodil|
0|8|에델바이스|높은 산에서 주로 자라는 꽃. 등산가들의 상징으로도 쓰인다. 꽃말은 소중한 추억.|99|107|edelweiss|
0|9|크로커스|샤프란이라고도 불리는 꽃. 식용도 가능하다. 꽃말은 당신을 기다리고 있습니다.|99|108|crocus|
0|10|튤립|전세계적으로 많이 키우고 있는 꽃. 꽃말은 헛된 사랑 (노란색)|99|109|tulip|
1|11|데이지 꽃다발|데이지를 여러 개 엮어서 만든 꽃다발.|99|1550|daisy_bouquet|
1|12|라벤더 꽃다발|라벤더를 여러 개 엮어서 만든 꽃다발.|99|1580|lavender_bouquet|
1|13|라일락 꽃다발|라일락을 여러 개 엮어서 만든 꽃다발.|99|1610|lilac_bouquet|
1|14|카네이션 꽃다발|카네이션을 여러 개 엮어서 만든 꽃다발.|99|1640|carnation_bouquet|
1|15|시클라멘 꽃다발|시클라멘을 여러 개 엮어서 만든 꽃다발.|99|1670|cyclamen_bouquet|
1|16|물망초 꽃다발|물망초를 여러 개 엮어서 만든 꽃다발.|99|1700|forget_me_not_bouquet|
1|17|수선화 꽃다발|수선화를 여러 개 엮어서 만든 꽃다발.|99|1730|daffodil_bouquet|
1|18|에델바이스 꽃다발|에델바이스를 여러 개 엮어서 만든 꽃다발.|99|1760|edelweissset_bouquet|
1|19|크로커스 꽃다발|크로커스를 여러 개 엮어서 만든 꽃다발.|99|1790|crocus_bouquet|
1|20|튤립 꽃다발|튤립을 여러 개 엮어서 만든 꽃다발.|99|1820|tulip_bouquet|
1|21|삼색 꽃다발 A|데이지, 라벤더, 라일락을 섞어서 만든 꽃다발.|99|3240|set_bouquet_a|
1|22|삼색 꽃다발 B|시클라멘, 물망초, 수선화를 섞어서 만든 꽃다발.|99|3335|set_bouquet_b|
1|23|삼색 꽃다발 C|에델바이스, 크로커스, 튤립을 섞어서 만든 꽃다발.|99|3440|set_bouquet_c|
2|24|데이지 꽃바구니|데이지를 여러 개 엮어서 만든 선물용 꽃바구니.|99|2575|daisy_basket|
2|25|라벤더 꽃바구니|라벤더를 여러 개 엮어서 만든 선물용 꽃바구니.|99|2620|lavender_basket|
2|26|라일락 꽃바구니|라일락을 여러 개 엮어서 만든 선물용 꽃바구니.|99|2665|lilac_basket|
2|27|카네이션 꽃바구니|카네이션을 여러 개 엮어서 만든 선물용 꽃바구니.|99|2710|carnation_basket|
2|28|시클라멘 꽃바구니|시클라멘을 여러 개 엮어서 만든 선물용 꽃바구니.|99|2755|cyclamen_basket|
2|29|물망초 꽃바구니|물망초를 여러 개 엮어서 만든 선물용 꽃바구니.|99|2800|forget_me_not_basket|
2|30|수선화 꽃바구니|수선화를 여러 개 엮어서 만든 선물용 꽃바구니.|99|2845|daffodil_basket|
2|31|에델바이스 꽃바구니|에델바이스를 여러 개 엮어서 만든 선물용 꽃바구니.|99|2890|edelweiss_basket|
2|32|크로커스 꽃바구니|크로커스를 여러 개 엮어서 만든 선물용 꽃바구니.|99|2935|crocus_basket|
2|33|튤립 꽃바구니|튤립을 여러 개 엮어서 만든 선물용 꽃바구니.|99|2980|tulip_basket|
2|34|삼색 꽃바구니 A|데이지, 라벤더, 라일락을 섞어서 만든 선물용 꽃바구니.|99|4427|basket_a|
2|35|삼색 꽃바구니 B|시클라멘, 물망초, 수선화를 섞어서 만든 선물용 꽃바구니.|99|4621|basket_b|
2|36|삼색 꽃바구니 C|에델바이스, 크로커스, 튤립을 섞어서 만든 선물용 꽃바구니.|99|4774|basket_c|
3|37|영양제|식물 영양제. 생화 작업시간을 30% 단축시켜준다.|99|1000|nutrients|
3|38|보호 장갑|손을 보호해주는 장갑. 꽃다발, 꽃바구니 작업시간을 30% 단축시켜준다.|99|1500|gloves|
