LV|GET_GOLD|RARE_PROBABILIY|COST|
0|0|0|0|
1|1000|15|5000|
2|1077|30|5455|
3|1160|45|5951|
4|1250|60|6492|
5|1347|75|7083|
6|1451|90|7727|
7|1563|105|8430|
8|1684|120|9197|
9|1814|135|10034|
10|1954|150|10947|
11|2105|165|11943|
12|2267|180|13029|
13|2442|195|14214|
14|2630|210|15507|
15|2833|225|16917|
16|3051|240|18455|
17|3286|255|20133|
18|3539|270|21964|
19|3812|285|23961|
20|4106|300|26140|
21|4422|315|28517|
22|4763|330|31110|
23|5130|345|33939|
24|5525|360|37025|
25|5950|375|40391|
26|6408|390|44063|
27|6901|405|48069|
28|7432|420|52439|
29|8004|435|57207|
30|8620|450|62408|
31|9284|465|68082|
32|9999|480|74272|
33|10769|495|81024|
34|11598|510|88390|
35|12491|525|96426|
36|13452|540|105192|
37|14487|555|114755|
38|15602|570|125188|
39|16803|585|136569|
40|18096|600|148985|
41|19488|615|162530|
42|20988|630|177306|
43|22603|645|193425|
44|24342|660|211010|
45|26215|675|230193|
46|28232|690|251120|
47|30404|705|273950|
48|32743|720|298855|
49|35262|735|326024|
50|37975|750|355663|
51|40897|765|387996|
52|44043|780|423269|
53|47431|795|461748|
54|51080|810|503726|
55|55010|825|549520|
56|59242|840|599477|
57|63800|855|653975|
58|68708|870|713428|
59|73994|885|778286|
60|79686|900|849040|
61|85816|915|926226|
62|92418|930|1010429|
63|99528|945|1102287|
64|107184|960|1202495|
65|115429|975|1311813|
66|124309|990|1431069|
67|133872|1005|1561167|
68|144170|1020|1703092|
69|155260|1035|1857919|
70|167204|1050|2026821|
71|180066|1065|2211078|
72|193918|1080|2412086|
73|208835|1095|2631367|
74|224900|1110|2870583|
75|242200|1125|3131546|
76|260831|1140|3416232|
77|280895|1155|3726799|
78|302503|1170|4065599|
79|325773|1185|4435199|
80|350833|1200|4838399|
81|377821|1215|5278254|
82|406885|1230|5758096|
83|438184|1245|6281560|
84|471891|1260|6852611|
85|508191|1275|7475576|
86|547283|1290|8155174|
87|589382|1305|8896554|
88|634720|1320|9705332|
89|683545|1335|10587635|
90|736126|1350|11550148|
91|792752|1365|12600162|
92|853733|1380|13745632|
93|919405|1395|14995235|
94|990129|1410|16358439|
95|1066293|1425|17845570|
96|1148316|1440|19467895|
97|1236648|1455|21237704|
98|1331775|1470|23168405|
99|1434220|1485|25274624|
100|2868440|1500|50549248|
101|3089090|1515|55144635|
102|3326713|1530|60157784|
103|3582614|1545|65626674|
104|3858200|1560|71592736|
105|4154985|1575|78101167|
106|4474600|1590|85201274|
107|4818800|1605|92946845|
108|5189477|1620|101396559|
109|5588668|1635|110614428|
110|6018566|1650|120670286|
111|6481533|1665|131640312|
112|6980113|1680|143607614|
113|7517045|1695|156662852|
114|8095280|1710|170904930|
115|8717994|1725|186441742|
116|9388609|1740|203390992|
117|10110810|1755|221881083|
118|10888565|1770|242052091|
119|11726147|1785|264056827|
120|12628159|1800|288061994|
121|13599556|1815|314249448|
122|14645676|1830|342817580|
123|15772267|1845|373982815|
124|16985519|1860|407981253|
125|18292098|1875|445070458|
126|19699183|1890|485531409|
127|21214505|1905|529670628|
128|22846390|1920|577822504|
129|24603805|1935|630351823|
130|26496406|1950|687656535|
131|28534592|1965|750170766|
132|30729561|1980|818368109|
133|33093374|1995|892765210|
134|35639019|2010|973925684|
135|38380482|2025|1062464383|
136|41332827|2040|1159052055|
137|44512276|2055|1264420424|
138|47936298|2070|1379367736|
139|51623706|2085|1504764803|
140|55594761|2100|1641561604|
141|59871282|2115|1790794478|
142|64476766|2130|1953593976|
143|69436518|2145|2131193429|
144|74777789|2160|2324938287|
145|80529927|2175|2536296314|
146|86724537|2190|2766868707|
147|93395656|2205|3018402226|
148|100579938|2220|3292802429|
149|108316857|2235|3592148105|
150|116648923|2250|3918707024|
151|125621918|2265|4274953118|
152|135285143|2280|4663585220|
153|145691693|2295|5087547513|
154|156898747|2310|5550051833|
155|168967882|2325|6054602000|
156|181965412|2340|6605020364|
157|195962752|2355|7205476761|
158|211036810|2370|7860520103|
159|227270411|2385|8575112840|
160|244752751|2400|9354668553|
161|263579886|2415|10205092967|
162|283855262|2430|11132828692|
163|305690283|2445|12144904028|
164|329204921|2460|13248986213|
165|354528377|2475|14453439506|
166|381799791|2490|15767388552|
167|411169006|2505|17200787512|
168|442797392|2520|18764495468|
169|476858730|2535|20470358693|
170|513540171|2550|22331300393|
171|553043262|2565|24361418611|
172|595585052|2580|26576093031|
173|641399287|2595|28992101489|
174|690737694|2610|31627747079|
175|743871363|2625|34502996814|
176|801092238|2640|37639632888|
177|862714718|2655|41061417696|
178|929077389|2670|44794273851|
179|1000544881|2685|48866480565|
180|1077509872|2700|53308887890|
181|1160395247|2715|58155150426|
182|1249656420|2730|63441982283|
183|1345783837|2745|69209435218|
184|1449305671|2760|75501202056|
185|1560790723|2775|82364947698|
186|1680851548|2790|89852670216|
187|1810147821|2805|98021094782|
188|1949389962|2820|106932103399|
189|2099343036|2835|116653203708|
190|2260830962|2850|127258040409|
191|2434741036|2865|138826953174|
192|2622028808|2880|151447585281|
193|2823723332|2895|165215547580|
194|3040932820|2910|180235142815|
195|3274850730|2925|196620155799|
196|3526762325|2940|214494715418|
197|3798051735|2955|233994235002|
198|4090209561|2970|255266438184|
199|4404841066|2985|278472478019|
200|8809682132|3000|556944956038|
201|9487349989|3015|607576315678|
202|10217146142|3030|662810526195|
203|11003080461|3045|723066028577|
204|11849471266|3060|788799303903|
205|12760969056|3075|860508331531|
206|13742582061|3090|938736361671|
207|14799703758|3105|1024076030914|
208|15938142509|3120|1117173851907|
209|17164153472|3135|1218735111172|
210|18484472970|3150|1329529212188|
211|19906355507|3165|1450395504206|
212|21437613623|3180|1582249640952|
213|23086660825|3195|1726090517403|
214|24862557812|3210|1883007837167|
215|26775062260|3225|2054190367819|
216|28834682434|3240|2240934946712|
217|31052734929|3255|2444656305504|
218|33441406847|3270|2666897787823|
219|36013822759|3285|2909343041262|
220|38784116818|3300|3173828772286|
221|41767510420|3315|3462358660676|
222|44980395837|3330|3777118538920|
223|48440426286|3345|4120492951550|
224|52166612924|3360|4495083219873|
225|56179429303|3375|4903727148953|
226|60500923865|3390|5349520526131|
227|65154841086|3405|5835840573962|
228|70166751939|3420|6366371535232|
229|75564194396|3435|6945132583890|
230|81376824735|3450|7576508273335|
231|87636580484|3465|8265281752730|
232|94377855906|3480|9016671002979|
233|101637690976|3495|9836368366887|
234|109455974898|3510|10730583672968|
235|117875665275|3525|11706091279602|
236|126943024143|3540|12770281395930|
237|136707872154|3555|13931216068288|
238|147223862320|3570|15197690256315|
239|158548774807|3585|16579298461435|
240|170744834408|3600|18086507412475|
241|183879052440|3615|19730735359064|
242|198023594936|3630|21524438573525|
243|213256179162|3645|23481205716573|
244|229660500636|3660|25615860781716|
245|247326692993|3675|27944575398236|
246|266351823224|3690|30484991343531|
247|286840425011|3705|33256354192943|
248|308905073089|3720|36279659119575|
249|332667001789|3735|39577809948628|
250|358256771158|3750|43175792671231|
251|385814984324|3765|47100864732252|
252|415493060042|3780|51382761526094|
253|447454064661|3795|56053921664830|
254|481873608097|3810|61149732725270|
255|518940808720|3825|66708799336659|
256|558859332468|3840|72773235639992|
257|601848511889|3855|79388984334537|
258|648144551266|3870|86606164728586|
259|698001824441|3885|94479452431185|
260|751694272475|3900|103068493561293|
261|809516908820|3915|112438356612320|
262|871787440268|3930|122660025395258|
263|938848012597|3945|133810936794827|
264|1011067090490|3960|145975567412539|
265|1088841482067|3975|159246073540952|
266|1172598519150|3990|173722989317402|
267|1262798405239|4005|189515988346257|
268|1359936744104|4020|206744714559553|
269|1464547262882|4035|225539688610421|
270|1577204744643|4050|246043296665914|
271|1698528186539|4065|268410869090088|
272|1829184200889|4080|292811857189187|
273|1969890677881|4095|319431116933659|
274|2121420730026|4110|348470309382173|
275|2284606940028|4125|380149428416916|
276|2460345935415|4140|414708467363908|
277|2649603315063|4155|452409237124263|
278|2853418954684|4170|493537349590105|
279|3072912720429|4185|538404381371024|
280|3309290622001|4200|587350234222935|
281|3563851439078|4215|640745710061384|
282|3837993857469|4230|698995320066964|
283|4133224154198|4245|762540349163961|
284|4451164473752|4260|831862199087958|
285|4793561740964|4275|907486035368682|
286|5162297259500|4290|989984765856744|
287|5559397048693|4305|1079983380934630|
288|5987042975516|4320|1178163688292320|
289|6447584742864|4335|1285269478137080|
290|6943552800008|4350|1402112157967720|
291|7477672246163|4365|1529576899601150|
292|8052877803561|4380|1668629345019440|
293|8672329942297|4395|1820322921839390|
294|9339432245551|4410|1985806823824790|
295|10057850110594|4425|2166334716899770|
296|10831530888332|4440|2363274236617930|
297|11664725572050|4455|2578117349037740|
298|12562012154516|4470|2812491653495720|
299|13528320781787|4485|3068172712904420|
300|27056641563574|4500|6136345425808840|
301|29137921683849|4515|6694195009973280|
302|31379300274915|4530|7302758192698120|
303|33793092603755|4545|7966645301125220|
304|36392561265583|4560|8690885783045690|
305|39191989055244|4575|9480966308777120|
306|42206757444109|4590|10342872336847800|
307|45453431093656|4605|11283133458379400|
308|48949848870092|4620|12308872863686600|
309|52715221860100|4635|13427861305839900|
310|56770238926262|4650|14648575970007200|
311|61137180382129|4665|15980264694553300|
312|65840040411524|4680|17433016030421800|
313|70904658904719|4695|19017835669551100|
314|76358863435852|4710|20746729821328500|
315|82232622161687|4725|22632796168722000|
316|88558208481817|4740|24690323093151300|
317|95370378365034|4755|26934897919801400|
318|102706561316190|4770|29383525003419700|
319|110607066032820|4785|32054754549185100|
320|119115301881498|4800|34968823144565600|
321|128278017410844|4815|38147807066798800|
322|138145557211678|4830|41615789527416900|
323|148772138535653|4845|45399043120818400|
324|160216149192242|4860|49526228859074600|
325|172540468360876|4875|54028613300808700|
326|185812812080943|4890|58940305419064000|
327|200106105317939|4905|64298515002615300|
328|215498882650088|4920|70143834548307600|
329|232075719777018|4935|76520546779971900|
330|249927698221404|4950|83476960123605700|
331|269152905776897|4965|91065774680297100|
332|289856975452043|4980|99344481469415000|
333|312153665871431|4995|108375797966635000|
334|336165486323080|5010|118228143236329000|
335|362024369886394|5025|128976156257813000|
336|389872398339194|5040|140701261372160000|
337|419862582826824|5055|153492285133265000|
338|452159704582734|5070|167446129236289000|
339|486941220319867|5085|182668504621406000|
340|524398237267549|5100|199274732314261000|
341|564736563211207|5115|217390617070103000|
342|608177837304377|5130|237153400440112000|
343|654960747866252|5145|258712800480122000|
344|705342343855964|5160|282232145978315000|
345|759599447229500|5175|307889613794525000|
346|818030173939462|5190|335879578684936000|
347|880955571934805|5205|366414085838112000|
348|948721385160559|5220|399724457277940000|
349|1021699953249830|5235|436063044303207000|
350|1100292257345970|5250|475705139239862000|
351|1184930123295660|5265|518951060988940000|
352|1276078594318400|5280|566128430169753000|
353|1374238486189050|5295|617594651094276000|
354|1479949138972820|5310|673739619375574000|
355|1593791380432270|5325|734988675682444000|
356|1716390717388600|5340|801805828017212000|
357|1848420772572340|5355|874697266927868000|
358|1990606985847140|5370|954215200284947000|
359|2143730600143070|5385|1040962036674490000|
360|2308632954000230|5400|1135594949099440000|
361|2486220104307940|5415|1238830853563030000|
362|2677467804639320|5430|1351451840250580000|
363|2883426866534650|5445|1474311098455180000|
364|3105228933191160|5460|1608339380132920000|
365|3344092697282790|5475|1754552051054090000|
366|3601330597073770|5490|1914056782968100000|
367|3878356027617910|5505|2088061945056110000|
368|4176691106665440|5520|2277885758243030000|
369|4497975037947400|5535|2484966281719670000|
370|4843973117789510|5550|2710872307330550000|
371|5216586434542550|5565|2957315244360600000|
372|5617862314122750|5580|3226162084757020000|
373|6050005569055270|5595|3519449547007660000|
374|6515390612828750|5610|3839399505826540000|
375|7016574506123270|5625|4188435824538040000|
376|7556311006594290|5640|4569202717677860000|
377|8137565699409240|5655|4984584782921300000|
378|8763532291671490|5670|5437728854095960000|
379|9437650160261600|5685|5932067840831960000|
380|10163623249512500|5700|6471346735453050000|
381|10945440422551900|5715|7059650984130600000|
382|11787397378132800|5730|7701437437233380000|
383|12694120253373800|5745|8401568113345510000|
384|13670591042094900|5760|9165347032740560000|
385|14722174968409900|5775|9998560399353340000|
386|15854649965979900|5790|10907520435658200000|
387|17074238424901400|5805|11899113202536200000|
388|18387641380663000|5820|12980850766403100000|
389|19802075333021700|5835|14160928108803400000|
390|21325311897100300|5850|15448285209603700000|
391|22965720504569600|5865|16852674774113100000|
392|24732314389536500|5880|18384736117214300000|
393|26634800111808500|5895|20056075764233800000|
394|28683630889639900|5910|21879355379164100000|
395|30890064034996800|5925|23868387686360800000|
396|33266222806919600|5940|26038241112393600000|
397|35825163022836500|5955|28405353940793000000|
398|38580944793823900|5970|30987658844501500000|
399|41548709777964200|5985|33804718739456200000|
400|83097419555928400|6000|67609437478912400000|
401|89489528752538300|6015|73755749976995300000|
402|96373338656579700|6030|80460818156722100000|
403|103786672399394000|6045|87775437989151400000|
404|111770262583963000|6060|95755023260892400000|
405|120367975090422000|6075|104460025375519000000|
406|129627050097378000|6090|113956391318748000000|
407|139598361643330000|6105|124316063256816000000|
408|150336697154355000|6120|135617523552890000000|
409|161901058473921000|6135|147946389330425000000|
410|174354986048838000|6150|161396061087736000000|
411|187766908052595000|6165|176068430277530000000|
412|202210516364333000|6180|192074651211851000000|
413|217765171469282000|6195|209535983140201000000|
414|234516338505381000|6210|228584708880219000000|
415|252556056851949000|6225|249365136960239000000|
416|271983445840560000|6240|272034694865715000000|
417|292905249366757000|6255|296765121671689000000|
418|315436422394969000|6270|323743769096388000000|
419|339700762579197000|6285|353175020832423000000|
420|365831590469904000|6300|385281840908098000000|
421|393972482044512000|6315|420307462808834000000|
422|424278057586398000|6330|458517232155092000000|
423|456914831246890000|6345|500200616896464000000|
424|492062125958189000|6360|545673400250688000000|
425|529913058724204000|6375|595280073000751000000|
426|570675601702989000|6390|649396443273546000000|
427|614573724910911000|6405|708432483571141000000|
428|661848626827135000|6420|772835436623063000000|
429|712760059659992000|6435|843093203588796000000|
430|767587756556915000|6450|919738040278686000000|
431|826632968599754000|6465|1003350589394930000000|
432|890220120030504000|6480|1094564279339920000000|
433|958698590802081000|6495|1194070122916280000000|
434|1032444636248400000|6510|1302621952272310000000|
435|1111863454421350000|6525|1421042129751610000000|
436|1197391412453760000|6540|1550227777910850000000|
437|1289498444180970000|6555|1691157575902750000000|
438|1388690632194890000|6570|1844899173712090000000|
439|1495512988517570000|6585|2012617280413190000000|
440|1610552449172770000|6600|2195582487723480000000|
441|1734441099109140000|6615|2395180895698340000000|
442|1867859645194460000|6630|2612924613489100000000|
443|2011541156363260000|6645|2850463214715380000000|
444|2166275091468130000|6660|3109596234234960000000|
445|2332911636965680000|6675|3392286800983590000000|
446|2512366378270730000|6690|3700676510163920000000|
447|2705625330445400000|6705|4037101647451550000000|
448|2913750355864280000|6720|4404110888128960000000|
449|3137884998623070000|6735|4804484605231590000000|
450|3379260767747920000|6750|5241255932979920000000|
451|3639203903728530000|6765|5717733745069000000000|
452|3919142665553800000|6780|6237527721893450000000|
453|4220615178288710000|6795|6804575696611040000000|
454|4545277884310920000|6810|7423173487212040000000|
455|4894914644642530000|6825|8098007440594950000000|
456|5271446540384260000|6840|8834189935194490000000|
457|5676942428106130000|6855|9637298111121260000000|
458|6113630307191220000|6870|10513416121223200000000|
459|6583909561590540000|6885|11469181223152600000000|
460|7090364143251350000|6900|12511834061621000000000|
461|7635776769655300000|6915|13649273521768400000000|
462|8223144213474940000|6930|14890116569201900000000|
463|8855693768357630000|6945|16243763530038400000000|
464|9536900981308220000|6960|17720469305496400000000|
465|10270508749101200000|6975|19331421060541500000000|
466|11060547883647400000|6990|21088822975136200000000|
467|11911359259312600000|7005|23005988700148600000000|
468|12827617663875100000|7020|25097442218343900000000|
469|13814357484173200000|7035|27379027874557000000000|
470|14877000367571100000|7050|29868030408607600000000|
471|16021385011230400000|7065|32583305900299200000000|
472|17253799242863500000|7080|35545424618508200000000|
473|18581014569237600000|7095|38776826856554400000000|
474|20010323382255900000|7110|42301992934423000000000|
475|21549579027044800000|7125|46147628655734200000000|
476|23207238952202100000|7140|50342867624437300000000|
477|24992411179294600000|7155|54919491953931600000000|
478|26914904346932600000|7170|59912173040652600000000|
479|28985281604389000000|7185|65358734226166500000000|
480|31214918650880500000|7200|71300437337636200000000|
481|33616066239409800000|7215|77782295277421300000000|
482|36201917488595200000|7230|84853413029914100000000|
483|38986680372333300000|7245|92567359668997200000000|
484|41985655785589700000|7260|100982574184361000000000|
485|45215321615250400000|7275|110162808201121000000000|
486|48693423277962000000|7290|120177608946677000000000|
487|52439071222420600000|7305|131102846123648000000000|
488|56472845931837600000|7320|143021286680343000000000|
489|60816911003517400000|7335|156023221833101000000000|
490|65495134926864900000|7350|170207151090656000000000|
491|70533222228931400000|7365|185680528462534000000000|
492|75958854708080000000|7380|202560576504583000000000|
493|81801843531778500000|7395|220975174368636000000000|
494|88094293034223000000|7410|241063826583967000000000|
495|94870777113778600000|7425|262978719909782000000000|
496|102168529199454000000|7440|286885876265217000000000|
497|110027646830181000000|7455|312966410471146000000000|
498|118491311970964000000|7470|341417902332159000000000|
499|127606028276423000000|7485|372455893453264000000000|
500|255212056552846000000|7500|744911786906528000000000|
