LV|GET_GOLD|COST|
0|0|0|
1|5|15|
2|6|17|
3|7|19|
4|8|21|
5|9|24|
6|10|27|
7|11|30|
8|12|33|
9|13|37|
10|15|41|
11|17|46|
12|19|51|
13|21|57|
14|23|63|
15|25|70|
16|28|77|
17|31|85|
18|34|94|
19|37|104|
20|41|115|
21|45|127|
22|49|140|
23|54|154|
24|59|170|
25|64|187|
26|70|206|
27|76|227|
28|83|250|
29|90|275|
30|98|303|
31|107|334|
32|116|368|
33|126|405|
34|137|446|
35|149|491|
36|162|541|
37|176|596|
38|191|656|
39|207|722|
40|225|795|
41|244|875|
42|265|963|
43|288|1060|
44|312|1166|
45|338|1283|
46|367|1412|
47|398|1554|
48|432|1710|
49|468|1881|
50|507|2070|
51|550|2277|
52|596|2505|
53|646|2756|
54|700|3032|
55|759|3336|
56|823|3670|
57|892|4037|
58|967|4441|
59|1048|4886|
60|1136|5375|
61|1231|5913|
62|1334|6505|
63|1446|7156|
64|1567|7872|
65|1698|8660|
66|1840|9526|
67|1994|10479|
68|2161|11527|
69|2342|12680|
70|2538|13948|
71|2750|15343|
72|2980|16878|
73|3229|18566|
74|3499|20423|
75|3791|22466|
76|4107|24713|
77|4450|27185|
78|4821|29904|
79|5223|32895|
80|5659|36185|
81|6131|39804|
82|6642|43785|
83|7196|48164|
84|7796|52981|
85|8446|58280|
86|9150|64108|
87|9913|70519|
88|10740|77571|
89|11635|85329|
90|12605|93862|
91|13656|103249|
92|14794|113574|
93|16027|124932|
94|17363|137426|
95|18810|151169|
96|20378|166286|
97|22077|182915|
98|23917|201207|
99|25911|221328|
100|28071|243461|
101|30411|267808|
102|32946|294589|
103|35692|324048|
104|38667|356453|
105|41890|392099|
106|45381|431309|
107|49163|474440|
108|53260|521884|
109|57699|574073|
110|62508|631481|
111|67717|694630|
112|73361|764093|
113|79475|840503|
114|86098|924554|
115|93273|1017010|
116|101046|1118711|
117|109467|1230583|
118|118590|1353642|
119|128473|1489007|
120|139180|1637908|
121|150779|1801699|
122|163344|1981869|
123|176956|2180056|
124|191703|2398062|
125|207679|2637869|
126|224986|2901656|
127|243735|3191822|
128|264047|3511005|
129|286051|3862106|
130|309889|4248317|
131|335714|4673149|
132|363691|5140464|
133|393999|5654511|
134|426833|6219963|
135|462403|6841960|
136|500937|7526156|
137|542682|8278772|
138|587906|9106650|
139|636899|10017315|
140|689974|11019047|
141|747472|12120952|
142|809762|13333048|
143|877243|14666353|
144|950347|16132989|
145|1029543|17746288|
146|1115339|19520917|
147|1208284|21473009|
148|1308975|23620310|
149|1418057|25982341|
150|1536229|28580576|
151|1664249|31438634|
152|1802937|34582498|
153|1953182|38040748|
154|2115948|41844823|
155|2292277|46029306|
156|2483301|50632237|
157|2690243|55695461|
158|2914430|61265008|
159|3157300|67391509|
160|3420409|74130660|
161|3705444|81543726|
162|4014231|89698099|
163|4348751|98667909|
164|4711147|108534700|
165|5103743|119388170|
166|5529055|131326987|
167|5989810|144459686|
168|6488961|158905655|
169|7029708|174796221|
170|7615517|192275844|
171|8250144|211503429|
172|8937656|232653772|
173|9682461|255919150|
174|10489333|281511065|
175|11363445|309662172|
176|12310399|340628390|
177|13336266|374691229|
178|14447622|412160352|
179|15651591|453376388|
180|16955891|498714027|
181|18368882|548585430|
182|19899623|603443973|
183|21557925|663788371|
184|23354419|730167209|
185|25300621|803183930|
186|27409007|883502323|
187|29693091|971852556|
188|32167516|1069037812|
189|34848143|1175941594|
190|37752155|1293535754|
191|40898168|1422889330|
192|44306349|1565178263|
193|47998545|1721696090|
194|51998424|1893865699|
195|56331626|2083252269|
196|61025929|2291577496|
197|66111424|2520735246|
198|71620710|2772808771|
199|77589103|3050089649|
200|84054862|3355098614|
201|91059434|3690608476|
202|98647721|4059669324|
203|106868365|4465636257|
204|115774063|4912199883|
205|125421902|5403419872|
206|135873728|5943761860|
207|147196539|6538138046|
208|159462918|7191951851|
209|172751495|7911147037|
210|187147453|8702261741|
211|202743075|9572487916|
212|219638332|10529736708|
213|237941527|11582710379|
214|257769988|12740981417|
215|279250821|14015079559|
216|302521723|15416587515|
217|327731867|16958246267|
218|355042856|18654070894|
219|384629761|20519477984|
220|416682242|22571425783|
221|451405763|24828568362|
222|489022910|27311425199|
223|529774820|30042567719|
224|573922722|33046824491|
225|621749616|36351506941|
226|673562084|39986657636|
227|729692258|43985323400|
228|790499947|48383855740|
229|856374943|53222241314|
230|927739522|58544465446|
231|1005051149|64398911991|
232|1088805412|70838803191|
233|1179539197|77922683511|
234|1277834131|85714951863|
235|1384320309|94286447050|
236|1499680335|103715091755|
237|1624653697|114086600931|
238|1760041506|125495261025|
239|1906711632|138044787128|
240|2065604268|151849265841|
241|2237737957|167034192426|
242|2424216121|183737611669|
243|2626234132|202111372836|
244|2845086977|222322510120|
245|3082177559|244554761132|
246|3339025689|269010237246|
247|3617277830|295911260971|
248|3918717650|325502387069|
249|4245277455|358052625776|
250|4599050577|393857888354|
251|4982304792|433243677190|
252|5397496858|476568044909|
253|5847288263|524224849400|
254|6334562285|576647334340|
255|6862442476|634312067774|
256|7434312683|697743274552|
257|8053838740|767517602008|
258|8724991969|844269362209|
259|9452074634|928696298430|
260|10239747521|1021565928273|
261|11093059815|1123722521101|
262|12017481467|1236094773212|
263|13018938256|1359704250534|
264|14103849778|1495674675588|
265|15279170593|1645242143147|
266|16552434810|1809766357462|
267|17931804378|1990742993209|
268|19426121410|2189817292530|
269|21044964861|2408799021783|
270|22798711933|2649678923962|
271|24698604595|2914646816359|
272|26756821645|3206111497995|
273|28986556783|3526722647795|
274|31402103182|3879394912575|
275|34018945114|4267334403833|
276|36853857207|4694067844217|
277|39925011975|5163474628639|
278|43252096307|5679822091503|
279|46856437666|6247804300654|
280|50761140805|6872584730720|
281|54991235873|7559843203792|
282|59573838863|8315827524172|
283|64538325435|9147410276590|
284|69916519222|10062151304249|
285|75742895824|11068366434674|
286|82054803810|12175203078142|
287|88892704128|13392723385957|
288|96300429472|14731995724553|
289|104325465262|16205195297009|
290|113019254034|17825714826710|
291|122437525204|19608286309381|
292|132640652305|21569114940320|
293|143694039998|23726026434352|
294|155668543332|26098629077788|
295|168640921943|28708491985567|
296|182694332105|31579341184124|
297|197918859781|34737275302537|
298|214412098097|38211002832791|
299|232279772939|42032103116071|
300|251636420684|46235313427679|
301|272606122408|50858844770447|
302|295323299276|55944729247492|
303|319933574216|61539202172242|
304|346594705401|67693122389467|
305|375477597518|74462434628414|
306|406767397312|81908678091256|
307|440664680422|90099545900382|
308|477386737124|99109500490421|
309|517168965218|109020450539463|
310|560266378987|119922495593409|
311|606955243903|131914745152750|
312|657534847562|145106219668025|
313|712329418193|159616841634828|
314|771690203043|175578525798311|
315|835997719964|193136378378142|
316|905664196628|212450016215956|
317|981136213014|233695017837552|
318|1062897564099|257064519621307|
319|1151472361108|282770971583438|
320|1247428391201|311048068741782|
321|1351380757135|342152875615960|
322|1463995820230|376368163177556|
323|1585995471916|414004979495312|
324|1718161761243|455405477444843|
325|1861341908014|500946025189327|
326|2016453733682|551040627708260|
327|2184491544823|606144690479086|
328|2366532506892|666759159526995|
329|2563743549133|733435075479695|
330|2777388844895|806778583027665|
331|3008837915303|887456441330432|
332|3259574408245|976202085463475|
333|3531205608933|1073822294009820|
334|3825472743011|1181204523410800|
335|4144262138262|1299324975751880|
336|4489617316451|1429257473327070|
337|4863752092822|1572183220659780|
338|5269064767224|1729401542725760|
339|5708153497826|1902341696998340|
340|6183832955979|2092575866698170|
341|6699152368978|2301833453367990|
342|7257415066393|2532016798704790|
343|7862199655260|2785218478575270|
344|8517382959865|3063740326432800|
345|9227164873188|3370114359076080|
346|9996095279287|3707125794983690|
347|10829103219228|4077838374482060|
348|11731528487497|4485622211930270|
349|12709155861456|4934184433123300|
350|13768252183244|5427602876435630|
351|14915606531848|5970363164079190|
352|16158573742836|6567399480487110|
353|17505121554739|7224139428535820|
354|18963881684301|7946553371389400|
355|20544205157993|8741208708528340|
356|22256222254493|9615329579381170|
357|24110907442368|10576862537319300|
358|26120149729232|11634548791051200|
359|28296828873335|12798003670156300|
360|30654897946113|14077804037171900|
361|33209472774956|15485584440889100|
362|35976928839536|17034142884978000|
363|38975006242831|18737557173475800|
364|42222923429734|20611312890823400|
365|45741500382212|22672444179905700|
366|49553292080730|24939688597896300|
367|53682733087458|27433657457685900|
368|58156294178080|30177023203454500|
369|63002652026254|33194725523800000|
370|68252873028442|36514198076180000|
371|73940612447479|40165617883798000|
372|80102330151436|44182179672177800|
373|86777524330723|48600397639395600|
374|94008984691617|53460437403335200|
375|101843066749252|58806481143668700|
376|110329988978356|64687129258035600|
377|119524154726552|71155842183839200|
378|129484500953765|78271426402223100|
379|140274876033245|86098569042445400|
380|151964449036015|94708425946690000|
381|164628153122350|104179268541359000|
382|178347165882546|114597195395495000|
383|193209429706092|126056914935045000|
384|209310215514933|138662606428549000|
385|226752733474511|152528867071404000|
386|245648794597387|167781753778544000|
387|266119527480503|184559929156398000|
388|288296154770545|203015922072038000|
389|312320834334757|223317514279242000|
390|338347570529320|245649265707166000|
391|366543201406763|270214192277883000|
392|397088468190660|297235611505671000|
393|430179173873215|326959172656238000|
394|466027438362650|359655089921862000|
395|504863058226204|395620598914048000|
396|546934979745054|435182658805453000|
397|592512894723809|478700924685998000|
398|641888969284126|526571017154598000|
399|695379716724470|579228118870058000|
400|753328026451509|637150930757064000|
401|816105361989135|700866023832770000|
402|884114142154896|770952626216047000|
403|957790320667804|848047888837652000|
404|1037606180723450|932852677721417000|
405|1124073362450400|1026137945493560000|
406|1217746142654600|1128751740042920000|
407|1319224987875820|1241626914047210000|
408|1429160403532140|1365789605451930000|
409|1548257103826490|1502368565997120000|
410|1677278529145360|1652605422596830000|
411|1817051739907470|1817865964856510000|
412|1968472718233090|1999652561342160000|
413|2132512111419180|2199617817476380000|
414|2310221454037450|2419579599224020000|
415|2502739908540570|2661537559146420000|
416|2711301567585620|2927691315061060000|
417|2937243364884420|3220460446567170000|
418|3182013645291460|3542506491223890000|
419|3447181449065750|3896757140346280000|
420|3734446569821230|4286432854380910000|
421|4045650450639670|4715076139819000000|
422|4382787988192980|5186583753800900000|
423|4748020320542400|5705242129180990000|
424|5143688680587600|6275766342099090000|
425|5572329403969900|6903342976309000000|
426|6036690187634060|7593677273939900000|
427|6539747703270230|8353045001333890000|
428|7084726678542750|9188349501467280000|
429|7675120568421310|10107184451614000000|
430|8314713949123090|11117902896775400000|
431|9007606778216680|12229693186452900000|
432|9758240676401400|13452662505098200000|
433|10571427399434900|14797928755608000000|
434|11452379682721100|16277721631168800000|
435|12406744656281200|17905493794285700000|
436|13440640044304600|19696043173714300000|
437|14560693381330000|21665647491085700000|
438|15774084496440800|23832212240194300000|
439|17088591537810900|26215433464213700000|
440|18512640832628500|28836976810635100000|
441|20055360902014200|31720674491698600000|
442|21726640977182000|34892741940868500000|
443|23537194391947200|38382016134955400000|
444|25498627257942800|42220217748450900000|
445|27623512862771400|46442239523296000000|
446|29925472268002400|51086463475625600000|
447|32419261623669300|56195109823188200000|
448|35120866758975100|61814620805507000000|
449|38047605655556400|67996082886057700000|
450|41218239460186100|74795691174663500000|
451|44653092748534900|82275260292129800000|
452|48374183810912800|90502786321342800000|
453|52405365795155500|99553064953477100000|
454|56772479611418500|109508371448825000000|
455|61503519579036700|120459208593707000000|
456|66628812877289800|132505129453078000000|
457|72181213950397300|145755642398386000000|
458|78196315112930400|160331206638225000000|
459|84712674705674600|176364327302047000000|
460|91772064264480800|194000760032252000000|
461|99419736286520900|213400836035477000000|
462|107704714310398000|234740919639025000000|
463|116680107169598000|258215011602927000000|
464|126403449433731000|284036512763220000000|
465|136937070219875000|312440164039542000000|
466|148348492738198000|343684180443496000000|
467|160710867133048000|378052598487846000000|
468|174103439394135000|415857858336631000000|
469|188612059343646000|457443644170294000000|
470|204329730955617000|503188008587323000000|
471|221357208535252000|553506809446055000000|
472|239803642579856000|608857490390661000000|
473|259787279461511000|669743239429727000000|
474|281436219416637000|736717563372700000000|
475|304889237701357000|810389319709970000000|
476|330296674176470000|891428251680967000000|
477|357821397024509000|980571076849064000000|
478|387639846776551000|1078628184533970000000|
479|419943167341264000|1186491002987370000000|
480|454938431286369000|1305140103286110000000|
481|492849967226900000|1435654113614720000000|
482|533920797829142000|1579219524976190000000|
483|578414197648237000|1737141477473810000000|
484|626615380785590000|1910855625221190000000|
485|678833329184389000|2101941187743310000000|
486|735402773283088000|2312135306517640000000|
487|796686337723345000|2543348837169400000000|
488|863076865866957000|2797683720886340000000|
489|934999938022537000|3077452092974970000000|
490|1012916599524410000|3385197302272470000000|
491|1097326316151440000|3723717032499720000000|
492|1188770175830730000|4096088735749690000000|
493|1287834357149960000|4505697609324660000000|
494|1395153886912460000|4956267370257130000000|
495|1511416710821830000|5451894107282840000000|
496|1637368103390320000|5997083518011120000000|
497|1773815445339510000|6596791869812230000000|
498|1921633399117800000|7256471056793450000000|
499|2081769515710950000|7982118162472790000000|
500|2255250308686860000|8780329978720070000000|
