%YAML 1.1
%TAG !u! tag:unity3d.com,2011:
--- !u!114 &11400000
MonoBehaviour:
  m_ObjectHideFlags: 0
  m_PrefabParentObject: {fileID: 0}
  m_PrefabInternal: {fileID: 0}
  m_GameObject: {fileID: 0}
  m_Enabled: 1
  m_EditorHideFlags: 0
  m_Script: {fileID: 11500000, guid: ae0543fe805424df99fe08ce744cbe49, type: 3}
  m_Name: Character@IdlePose
  m_EditorClassIdentifier: 
  m_PoseEntries:
  - path: Hip
    localPosition: {x: -0.06699181, y: -0.3400591, z: 0}
    localRotation: {x: 0, y: 0, z: 0.7209805, w: 0.6929554}
    localScale: {x: 0.8652777, y: 0.8652777, z: 0.8652777}
  - path: Hip/Spine
    localPosition: {x: 0.4561669, y: -0.000000034442493, z: 0}
    localRotation: {x: 0, y: 0, z: 0.034655303, w: 0.99939936}
    localScale: {x: 1, y: 1, z: 1}
  - path: Hip/Spine/Neck
    localPosition: {x: 0.6755443, y: -0.0000000036598067, z: 0}
    localRotation: {x: 0, y: 0, z: -0.038499694, w: 0.9992587}
    localScale: {x: 1, y: 1, z: 1}
  - path: Hip/Spine/Neck/Head
    localPosition: {x: 0.56662774, y: 0.0000000016734703, z: 0}
    localRotation: {x: 0, y: 0, z: -0.71388316, w: 0.7002649}
    localScale: {x: 1, y: 1, z: 1}
  - path: Hip/Spine/Neck/Front Hat
    localPosition: {x: 1.4922338, y: 0.022267276, z: 0}
    localRotation: {x: 0, y: 0, z: 0.41781068, w: 0.9085341}
    localScale: {x: 1, y: 1, z: 1}
  - path: Hip/Spine/Neck/Back Hat
    localPosition: {x: 1.4069875, y: -0.7247976, z: 0}
    localRotation: {x: 0, y: 0, z: -0.63380337, w: 0.7734943}
    localScale: {x: 1, y: 1, z: 1}
  - path: Hip/Spine/Neck/Back Hair1
    localPosition: {x: 0.862601, y: 0.10543384, z: 0}
    localRotation: {x: 0, y: 0, z: -0.99435604, w: -0.106095105}
    localScale: {x: 1, y: 1, z: 1}
  - path: Hip/Spine/Neck/Back Hair1/Back Hair2
    localPosition: {x: 0.90950096, y: 0.0000005364418, z: 0}
    localRotation: {x: 0, y: 0, z: -0.100815445, w: 0.9949052}
    localScale: {x: 1, y: 1, z: 1}
  - path: Hip/Spine/Neck/Back Hair1/Back Hair2/Back Hair3
    localPosition: {x: 1.0697019, y: 0.0000014747493, z: 0}
    localRotation: {x: 0, y: 0, z: 0.036539163, w: 0.99933225}
    localScale: {x: 1, y: 1, z: 1}
  - path: Hip/Spine/Neck/Right Hair1
    localPosition: {x: 1.2567142, y: 0.28202695, z: 0}
    localRotation: {x: 0, y: 0, z: -0.9927142, w: -0.12049273}
    localScale: {x: 1.0000004, y: 1.0000004, z: 1}
  - path: Hip/Spine/Neck/Right Hair1/Right Hair2
    localPosition: {x: 1.0534536, y: -0.00000017881388, z: 0}
    localRotation: {x: 0, y: 0, z: -0.14598513, w: 0.9892868}
    localScale: {x: 1, y: 1, z: 1}
  - path: Hip/Spine/Neck/Right Hair1/Right Hair2/Right Hair3
    localPosition: {x: 1.2180516, y: 0.000000006519258, z: 0}
    localRotation: {x: 0, y: 0, z: 0.54928595, w: 0.83563447}
    localScale: {x: 1, y: 1, z: 1}
  - path: Hip/Spine/Neck/Front Hair
    localPosition: {x: 1.2701242, y: -0.20531884, z: 0}
    localRotation: {x: 0, y: 0, z: -0.99929345, w: 0.03758554}
    localScale: {x: 1, y: 1, z: 1}
  - path: Hip/Spine/Neck/Left Hair
    localPosition: {x: 1.2613409, y: -0.48015425, z: 0}
    localRotation: {x: 0, y: 0, z: -0.9967452, w: 0.080616355}
    localScale: {x: 1.0000008, y: 1.0000008, z: 1}
  - path: Hip/Spine/Neck/Left Back Hair1
    localPosition: {x: 0.5658682, y: -0.4941349, z: 0}
    localRotation: {x: 0, y: 0, z: -0.9919952, w: 0.126276}
    localScale: {x: 1.0000007, y: 1.0000007, z: 1}
  - path: Hip/Spine/Neck/Left Back Hair1/Left Back Hair2
    localPosition: {x: 0.92734694, y: 0.00000053644146, z: 0}
    localRotation: {x: 0, y: 0, z: -0.41401798, w: 0.91026866}
    localScale: {x: 1, y: 1, z: 1}
  - path: Hip/Spine/Neck/Left Back Hair1/Left Back Hair2/Left Back Hair3
    localPosition: {x: 0.623072, y: 0.0000003874302, z: 0}
    localRotation: {x: 0, y: 0, z: 0.6786913, w: 0.73442364}
    localScale: {x: 1, y: 1, z: 1}
  - path: Hip/Spine/Left Arm
    localPosition: {x: 0.4907402, y: -0.4030082, z: 0}
    localRotation: {x: 0, y: 0, z: -0.9978848, w: 0.06500755}
    localScale: {x: 1, y: 1, z: 1}
  - path: Hip/Spine/Left Arm/Left Forearm
    localPosition: {x: 0.55157477, y: 0.0000005066395, z: 0}
    localRotation: {x: 0, y: 0, z: 0.18352897, w: 0.98301435}
    localScale: {x: 1, y: 1, z: 1}
  - path: Hip/Spine/Left Arm/Left Forearm/Left Hand
    localPosition: {x: 0.65156597, y: 0.00000047427602, z: 0}
    localRotation: {x: -0, y: -0, z: -0.06504011, w: 0.9978827}
    localScale: {x: 1, y: 1, z: 1}
  - path: Hip/Spine/Right Arm
    localPosition: {x: 0.72784925, y: 0.46322566, z: 0}
    localRotation: {x: 0, y: 0, z: 0.9846037, w: 0.17480166}
    localScale: {x: 1, y: 1, z: 1}
  - path: Hip/Spine/Right Arm/Right Forearm
    localPosition: {x: 0.6361376, y: -0.000000029802322, z: -1.7841622e-11}
    localRotation: {x: 0, y: 0, z: 0, w: 1}
    localScale: {x: 1, y: 1, z: 1}
  - path: Hip/Spine/Right Arm/Right Forearm/Right Hand
    localPosition: {x: 0.5698399, y: 0.0000011329388, z: -2.3433878e-11}
    localRotation: {x: -5.7748264e-12, y: 2.8525883e-11, z: -0.58617395, w: 0.81018525}
    localScale: {x: 1, y: 1, z: 1}
  - path: Hip/Spine/Right CloakShoulder
    localPosition: {x: 0.6033938, y: 0.118051834, z: 0}
    localRotation: {x: -0, y: -0, z: 0.5276659, w: 0.849452}
    localScale: {x: 1, y: 1, z: 1}
  - path: Hip/Spine/Right CloakShoulder/Right CloakShoulder1
    localPosition: {x: 0.5316663, y: -0.00000023841858, z: 0}
    localRotation: {x: 0, y: 0, z: 0.64181113, w: 0.7668628}
    localScale: {x: 1, y: 1, z: 1}
  - path: Hip/Spine/Left CloakShoulder
    localPosition: {x: 0.5833304, y: -0.21467148, z: 0}
    localRotation: {x: -0, y: -0, z: -0.6080814, w: 0.7938747}
    localScale: {x: 1, y: 1, z: 1}
  - path: Hip/Spine/Left CloakShoulder/Left CloakShoulder1
    localPosition: {x: 0.23934527, y: -0.00000016391277, z: 0}
    localRotation: {x: 0, y: 0, z: -0.5971213, w: 0.80215096}
    localScale: {x: 1, y: 1, z: 1}
  - path: Hip/Spine/Right Robe1
    localPosition: {x: -0.07353632, y: 0.21034476, z: 0}
    localRotation: {x: 0, y: 0, z: 0.9639841, w: 0.26595992}
    localScale: {x: 1, y: 1, z: 1}
  - path: Hip/Spine/Right Robe1/Right Robe2
    localPosition: {x: 0.6831173, y: 0, z: 0}
    localRotation: {x: 0.0018935082, y: -0.000025597199, z: 0.01351714, w: 0.9999069}
    localScale: {x: 1, y: 1, z: 1}
  - path: Hip/Spine/Right Robe1/Right Robe2/Right Robe3
    localPosition: {x: 0.62382007, y: -5.2887117e-10, z: -0.000058812635}
    localRotation: {x: 0, y: 0, z: 0.08166889, w: 0.9966595}
    localScale: {x: 1, y: 1, z: 1}
  - path: Hip/Spine/Left Robe1
    localPosition: {x: -0.33125496, y: 0.13926256, z: 0}
    localRotation: {x: 0, y: 0, z: 0.99541914, w: -0.09560807}
    localScale: {x: 1.0000007, y: 1.0000007, z: 1}
  - path: Hip/Spine/Left Robe1/Left Robe2
    localPosition: {x: 0.62730974, y: 0.0000016614783, z: 0}
    localRotation: {x: 0.0018523912, y: -0.0003933322, z: 0.20770632, w: 0.97818947}
    localScale: {x: 1, y: 1, z: 1}
  - path: Hip/Spine/Left Robe1/Left Robe2/Left Robe3
    localPosition: {x: 0.47078276, y: 0.0000015515642, z: -0.000016356924}
    localRotation: {x: 0, y: 0, z: 0.087946825, w: 0.99612516}
    localScale: {x: 1, y: 1, z: 1}
  - path: Hip/Spine/Right Cloak1
    localPosition: {x: 0.6230281, y: 0.3537908, z: 0}
    localRotation: {x: 0, y: 0, z: 0.98303115, w: 0.18343905}
    localScale: {x: 1, y: 1, z: 1}
  - path: Hip/Spine/Right Cloak1/Right Cloak2
    localPosition: {x: 1.0989876, y: 0.000001013279, z: 0}
    localRotation: {x: 0, y: 0, z: -0.01946792, w: 0.99981046}
    localScale: {x: 1, y: 1, z: 1}
  - path: Hip/Spine/Right Cloak1/Right Cloak2/Right Cloak3
    localPosition: {x: 1.1327391, y: 4.1472958e-10, z: 0}
    localRotation: {x: 0, y: 0, z: -0.066273905, w: 0.9978015}
    localScale: {x: 1, y: 1, z: 1}
  - path: Hip/Spine/Right Cloak1/Right Cloak2/Right Cloak4
    localPosition: {x: 1.1718801, y: 0.003685239, z: 0}
    localRotation: {x: 0, y: 0, z: 0.19590339, w: 0.98062325}
    localScale: {x: 1, y: 1, z: 1}
  - path: Hip/Spine/Left Cloak1
    localPosition: {x: 0.55902964, y: -0.1986177, z: 0}
    localRotation: {x: 0, y: 0, z: 0.9999632, w: 0.008575913}
    localScale: {x: 1.000002, y: 1.000002, z: 1}
  - path: Hip/Spine/Left Cloak1/Left Cloak2
    localPosition: {x: 1.1199652, y: 0.0000011064091, z: 0}
    localRotation: {x: 0, y: 0, z: -0.043340404, w: 0.9990604}
    localScale: {x: 1, y: 1, z: 1}
  - path: Hip/Spine/Left Cloak1/Left Cloak2/Left Cloak3
    localPosition: {x: 1.2886674, y: 5.820766e-10, z: 0}
    localRotation: {x: 0, y: 0, z: -0.11235255, w: 0.99366844}
    localScale: {x: 1, y: 1, z: 1}
  - path: Hip/Spine/Left Cloak1/Left Cloak2/Left Cloak4
    localPosition: {x: 1.2719203, y: 0.080313824, z: 0}
    localRotation: {x: 0, y: 0, z: 0.19286571, w: 0.9812252}
    localScale: {x: 1, y: 1, z: 1}
  - path: Hip/Right Leg
    localPosition: {x: -0.12318762, y: 0.2403178, z: 0}
    localRotation: {x: 0, y: 0, z: 0.9999665, w: -0.0081849815}
    localScale: {x: 1, y: 1, z: 1}
  - path: Hip/Right Leg/Right Calf
    localPosition: {x: 1.1764517, y: 0.0000005364418, z: 0}
    localRotation: {x: 0, y: 0, z: -0.23925334, w: 0.9709572}
    localScale: {x: 1, y: 1, z: 1}
  - path: Hip/Right Leg/Right Calf/Right Foot
    localPosition: {x: 1.1337266, y: -0.000000023544999, z: 0}
    localRotation: {x: -0, y: -0, z: -0.08968542, w: -0.99597013}
    localScale: {x: 1, y: 1, z: 1}
  - path: Hip/Left Leg
    localPosition: {x: -0.13889582, y: -0.21959276, z: 0}
    localRotation: {x: 0, y: 0, z: 0.9999283, w: 0.011974601}
    localScale: {x: 1.0000007, y: 1.0000007, z: 1}
  - path: Hip/Left Leg/Left Calf
    localPosition: {x: 1.1575466, y: 0.0000016093244, z: 0}
    localRotation: {x: 0, y: 0, z: -0.10020836, w: 0.9949665}
    localScale: {x: 1, y: 1, z: 1}
  - path: Hip/Left Leg/Left Calf/Left Foot
    localPosition: {x: 1.1311283, y: 0.00000050494054, z: 0}
    localRotation: {x: -0, y: -0, z: 0.7156415, w: 0.6984679}
    localScale: {x: 1, y: 1, z: 1}
  - path: Hip/Right Skirt
    localPosition: {x: -0.13087943, y: 0.251046, z: 0}
    localRotation: {x: 0, y: 0, z: -0.95278615, w: -0.3036423}
    localScale: {x: 1, y: 1, z: 1}
  - path: Hip/Left Skirt
    localPosition: {x: -0.14983204, y: -0.2268672, z: 0}
    localRotation: {x: 0, y: 0, z: -0.9629276, w: 0.2697602}
    localScale: {x: 1.0000006, y: 1.0000006, z: 1}
