1|4300|125|10|5|1|3|270|Skull01|40|
2|4515|129|10|5|1|3|276|Skull02|40|
3|4741|133|10|5|1|3|282|Skull01|40|
4|4979|137|10|5|1|3|288|Skull02|40|
5|5228|141|10|5|1|3|294|Skull01|40|
6|5490|146|10|5|1|3|300|Skull02|40|
7|5765|151|10|5|1|3|306|Skull01|40|
8|6054|156|10|5|1|3|313|Skull02|40|
9|6357|161|10|5|1|3|320|Skull01|40|
10|6675|166|10|5|1|3|327|Skull02|40|
100|7600|260|20|20|2|4|1300|Skull03|80|
11|3000|50|1|0|1|3|200|Skull04|40|
12|3300|57|1|0|1|3|207|Skull04|40|
13|3630|64|2|0|1|3|214|Skull04|40|
14|3993|71|2|0|1|3|221|Skull04|40|
15|4393|80|3|0|1|3|231|Skull04|40|
