1|5000|195|3|5|2|2.5|200|Viking01|40|
2|5334|203|3|5|2|2.5|204|Viking02|40|
3|5690|212|3|5|2|2.5|209|Viking03|40|
4|6070|221|3|5|2|2.5|214|Viking01|40|
5|6475|230|3|5|2|2.5|219|Viking02|40|
6|6907|240|3|5|2|2.5|224|Viking03|40|
7|7368|250|3|5|2|2.5|229|Viking01|40|
8|7860|260|3|5|2|2.5|234|Viking02|40|
9|8384|271|3|5|2|2.5|239|Viking03|40|
10|8943|282|3|5|2|2.5|244|Viking01|40|
100|13000|320|25|20|2|3|1500|Viking01|80|
11|150|10|1|0|1|2.5|45|Viking04|40|
12|165|11|1|0|1|2.5|48|Viking04|40|
13|182|13|2|0|1|2.5|49|Viking04|40|
14|201|15|2|0|1|2.5|51|Viking04|40|
15|222|20|3|0|1|2.5|53|Viking04|40|
